{
  "development": {
    "stripe": {
      "publishableAPIKey": "pk_test_51HO3wqJ6fZ59XVT0v4Ribf02fHQORnjNnc6xjuCSaW2PEbMfxP4WG8Hhh1hxeglP4YKxds7PImWR5nqjdzlMC8E300QdaBM4So"
    },
    "server_url": "http://localhost:3001"
  },
  "production": {
    "stripe": {
      "publishableAPIKey": "pk_test_51HO3wqJ6fZ59XVT0v4Ribf02fHQORnjNnc6xjuCSaW2PEbMfxP4WG8Hhh1hxeglP4YKxds7PImWR5nqjdzlMC8E300QdaBM4So"
    },
    "server_url": "https://t-b-d.not-yet/tbd"
  }
}