[
    {
        "type": "pg",
        "hostname": "localhost",
        "username": "docker",
        "password": "docker",
        "port": 8123,
        "database": "docker",
        "name": "demo"
    },
    {
        "type": "mongo",
        "hostname": "localhost",
        "username": "docker",
        "password": "docker",
        "port": 8123,
        "database": "docker",
        "name": "demo_mongo"
    },
    {
        "type": "mysql",
        "hostname": "localhost",
        "username": "docker",
        "password": "docker",
        "port": 8123,
        "database": "docker",
        "name": "demo_mysql"
    }
]


